{
    "users": [
      {

        "name": "Juliet Oma",
        "email": "julie@yahoo.com"

      },
      {

        "name": "James Williams",
        "email": "jameswilly@gmail.com"

      },
      {

        "name": "Ahmed Ali",
        "email": "ahmedali012@gmail.com"

      },
      {

        "name": "Grace Funsho",
        "email": "gracefunsho@gmail.com"

      }
    ]
  }
